{
	"replace": false,
	"values": [
		"lycanitesmobs:demonstonebrick_fence",
		"lycanitesmobs:desertstonebrick_fence",
		"lycanitesmobs:lushstonebrick_fence",
		"lycanitesmobs:shadowstonebrick_fence",
		"lycanitesmobs:aberrantstonebrick_fence"
	]
}