{
  "result": {
    "item": "lycanitesmobs:amber_cake"
  },
  "ingredients": [
    {
      "item": "minecraft:sugar"
    },
    {
      "item": "minecraft:green_dye"
    },
    {
      "item": "lycanitesmobs:cooked_joust_meat"
    }
  ],
  "type": "minecraft:crafting_shapeless"
}