{
  "result": {
    "item": "lycanitesmobs:bucketmoglava"
  },
  "pattern": [
    " G ",
    "IMI",
    " I "
  ],
  "type": "minecraft:crafting_shaped",
  "key": {
    "G": {
      "item": "minecraft:ghast_tear"
    },
    "I": {
      "item": "minecraft:iron_ingot"
    },
    "M": {
      "item": "minecraft:magma_cream"
    }
  }
}